%YAML 1.1
%TAG !u! tag:unity3d.com,2011:
--- !u!114 &11400000
MonoBehaviour:
  m_ObjectHideFlags: 0
  m_CorrespondingSourceObject: {fileID: 0}
  m_PrefabInstance: {fileID: 0}
  m_PrefabAsset: {fileID: 0}
  m_GameObject: {fileID: 0}
  m_Enabled: 1
  m_EditorHideFlags: 0
  m_Script: {fileID: 11500000, guid: 5760785f8c0064b44b588ae7fd6fd268, type: 3}
  m_Name: MicroSplatConfig
  m_EditorClassIdentifier: 
  diffuseIsLinear: 0
  antiTileArray: 0
  emisMetalArray: 0
  textureMode: 1
  clusterMode: 0
  packingMode: 0
  pbrWorkflow: 0
  hash: 711800832
  diffuseArray: {fileID: 18700000, guid: 38817a5d8bf2aca4c8c5b10b56fc9432, type: 2}
  normalSAOArray: {fileID: 18700000, guid: 86e1a5e083fe2404d99e57ffdd51c4fd, type: 2}
  smoothAOArray: {fileID: 0}
  specularArray: {fileID: 0}
  diffuseArray2: {fileID: 0}
  normalSAOArray2: {fileID: 0}
  smoothAOArray2: {fileID: 0}
  specularArray2: {fileID: 0}
  diffuseArray3: {fileID: 0}
  normalSAOArray3: {fileID: 0}
  smoothAOArray3: {fileID: 0}
  specularArray3: {fileID: 0}
  emisArray: {fileID: 0}
  emisArray2: {fileID: 0}
  emisArray3: {fileID: 0}
  defaultTextureSettings:
    diffuseSettings:
      textureSize: 1024
      compression: 0
      filterMode: 1
      Aniso: 1
    normalSettings:
      textureSize: 1024
      compression: 0
      filterMode: 2
      Aniso: 1
    smoothSettings:
      textureSize: 1024
      compression: 0
      filterMode: 1
      Aniso: 1
    antiTileSettings:
      textureSize: 1024
      compression: 0
      filterMode: 1
      Aniso: 1
    emissiveSettings:
      textureSize: 1024
      compression: 0
      filterMode: 1
      Aniso: 1
    specularSettings:
      textureSize: 1024
      compression: 0
      filterMode: 1
      Aniso: 1
  platformOverrides: []
  sourceTextureSize: 0
  allTextureChannelHeight: 1
  allTextureChannelSmoothness: 1
  allTextureChannelAO: 1
  allTextureChannelAlpha: 3
  sourceTextures:
  - diffuse: {fileID: 2800000, guid: 276f3c0c9a256124f990a71ddc9a8956, type: 3}
    height: {fileID: 0}
    heightChannel: 2
    normal: {fileID: 2800000, guid: 1f566c285ab40f34db62578be34d3700, type: 3}
    smoothness: {fileID: 0}
    smoothnessChannel: 3
    isRoughness: 0
    ao: {fileID: 0}
    aoChannel: 1
    alpha: {fileID: 0}
    alphaChannel: 1
    normalizeAlpha: 0
    emis: {fileID: 0}
    metal: {fileID: 0}
    metalChannel: 0
    specular: {fileID: 0}
    noiseNormal: {fileID: 0}
    detailNoise: {fileID: 0}
    detailChannel: 1
    distanceNoise: {fileID: 0}
    distanceChannel: 1
  sourceTextures2:
  - diffuse: {fileID: 0}
    height: {fileID: 0}
    heightChannel: 2
    normal: {fileID: 0}
    smoothness: {fileID: 0}
    smoothnessChannel: 3
    isRoughness: 0
    ao: {fileID: 0}
    aoChannel: 1
    alpha: {fileID: 0}
    alphaChannel: 1
    normalizeAlpha: 0
    emis: {fileID: 0}
    metal: {fileID: 0}
    metalChannel: 1
    specular: {fileID: 0}
    noiseNormal: {fileID: 0}
    detailNoise: {fileID: 0}
    detailChannel: 1
    distanceNoise: {fileID: 0}
    distanceChannel: 1
  sourceTextures3:
  - diffuse: {fileID: 0}
    height: {fileID: 0}
    heightChannel: 2
    normal: {fileID: 0}
    smoothness: {fileID: 0}
    smoothnessChannel: 3
    isRoughness: 0
    ao: {fileID: 0}
    aoChannel: 1
    alpha: {fileID: 0}
    alphaChannel: 1
    normalizeAlpha: 0
    emis: {fileID: 0}
    metal: {fileID: 0}
    metalChannel: 1
    specular: {fileID: 0}
    noiseNormal: {fileID: 0}
    detailNoise: {fileID: 0}
    detailChannel: 1
    distanceNoise: {fileID: 0}
    distanceChannel: 1
