%YAML 1.1
%TAG !u! tag:unity3d.com,2011:
--- !u!114 &11400000
MonoBehaviour:
  m_ObjectHideFlags: 0
  m_CorrespondingSourceObject: {fileID: 0}
  m_PrefabInstance: {fileID: 0}
  m_PrefabAsset: {fileID: 0}
  m_GameObject: {fileID: 0}
  m_Enabled: 1
  m_EditorHideFlags: 0
  m_Script: {fileID: 11500000, guid: 007677a8d215f46f78fdc4a57e84fb09, type: 3}
  m_Name: MicroSplat_keywords
  m_EditorClassIdentifier: 
  keywords:
  - _MICROSPLAT
  - _USEGRADMIP
  - _MAX4TEXTURES
  - _WORLDUV
  - _BRANCHSAMPLES
  - _TRIPLANAR
  - _MSRENDERLOOP_UNITYLD
  drawOrder: 100
